N1  N2  S
vast amount	large quantity	6.72222222222
large number	vast amount	6.72222222222
important part	significant role	6.33333333333
certain circumstance	particular case	6.05555555556
general principle	basic rule	6.05555555556
old person	elderly lady	5.72222222222
large number	great majority	5.61111111111
federal assembly	national government	5.55555555556
different kind	various form	5.44444444444
large quantity	great majority	5.38888888889
effective way	efficient use	5.22222222222
new information	further evidence	5.22222222222
special circumstance	particular case	5.16666666667
earlier work	early stage	4.61111111111
vast amount	high price	4.38888888889
good place	high point	4.27777777778
new life	early age	4.22222222222
older man	elderly woman	4.22222222222
small house	little room	3.83333333333
social activity	political action	3.77777777778
new situation	different kind	3.72222222222
different part	various form	3.61111111111
effective way	important part	3.55555555556
right hand	left arm	3.55555555556
political action	economic development	3.38888888889
new law	basic rule	3.38888888889
central authority	local office	3.33333333333
economic problem	practical difficulty	3.33333333333
social activity	economic condition	3.22222222222
new situation	present position	3.16666666667
black hair	dark eye	3.11111111111
new life	economic development	3.05555555556
general principle	present position	3.0
better job	good place	2.94444444444
certain circumstance	economic condition	2.88888888889
economic development	rural community	2.88888888889
major issue	social event	2.88888888889
social event	special circumstance	2.83333333333
american country	european state	2.83333333333
similar result	good effect	2.77777777778
early evening	previous day	2.77777777778
early stage	long period	2.72222222222
public building	central authority	2.66666666667
efficient use	significant role	2.66666666667
central authority	political action	2.66666666667
better job	good effect	2.61111111111
northern region	industrial area	2.55555555556
previous day	early age	2.55555555556
industrial area	whole country	2.55555555556
similar result	basic rule	2.44444444444
different part	northern region	2.38888888889
long period	short time	2.33333333333
modern language	new technology	2.33333333333
better job	economic problem	2.33333333333
hot weather	cold air	2.22222222222
economic problem	new situation	2.22222222222
earlier work	early evening	2.22222222222
new body	whole system	2.22222222222
high price	low cost	2.16666666667
local office	industrial area	2.16666666667
general level	federal assembly	2.16666666667
economic condition	american country	2.16666666667
major issue	american country	2.11111111111
efficient use	little room	2.11111111111
whole country	general principle	2.0
effective way	practical difficulty	2.0
new law	modern language	1.94444444444
local office	new technology	1.94444444444
general level	high point	1.94444444444
new law	public building	1.83333333333
black hair	right hand	1.83333333333
major issue	earlier work	1.83333333333
previous day	long period	1.83333333333
dark eye	left arm	1.83333333333
rural community	federal assembly	1.83333333333
special circumstance	elderly lady	1.83333333333
high price	short time	1.77777777778
older man	new body	1.77777777778
social activity	whole system	1.77777777778
national government	new information	1.72222222222
small house	old person	1.72222222222
different kind	whole system	1.61111111111
new body	significant role	1.61111111111
elderly woman	black hair	1.61111111111
further evidence	low cost	1.55555555556
high point	particular case	1.55555555556
new life	modern language	1.55555555556
social event	low cost	1.55555555556
new information	general level	1.55555555556
older man	great majority	1.5
large number	certain circumstance	1.44444444444
new technology	public building	1.38888888889
whole country	different part	1.38888888889
european state	present position	1.38888888889
large quantity	good place	1.38888888889
various form	european state	1.33333333333
practical difficulty	cold air	1.27777777778
old person	right hand	1.22222222222
short time	rural community	1.22222222222
hot weather	further evidence	1.22222222222
little room	similar result	1.16666666667
early stage	dark eye	1.16666666667
hot weather	elderly lady	1.16666666667
small house	important part	1.11111111111
left arm	elderly woman	1.11111111111
early evening	good effect	1.11111111111
northern region	early age	1.11111111111
national government	cold air	1.0
